…
Datasets in a specific package

To see datasets available in a specific package, you would pass the package name as a character string to package argument: data(package = "ggplot2")

More information on a particular data set

If the description of the data set sounds interesting to us, we can learn more about that data using ?<data name>. Now let’s look at one of the datasets, mpg available in the package ggplot2 in a bit more detail.

Extracting Atomic Vectors from a Tibble

To see the data we can simply print it after loading ggplot2:

library(ggplot2)
mpg
#> # A tibble: 234 x 11
#>    manufac… model   displ  year   cyl trans  drv     cty   hwy fl    class
#>    <chr>    <chr>   <dbl> <int> <int> <chr>  <chr> <int> <int> <chr> <chr>
#>  1 audi     a4       1.80  1999     4 auto(… f        18    29 p     comp…
#>  2 audi     a4       1.80  1999     4 manua… f        21    29 p     comp…
#>  3 audi     a4       2.00  2008     4 manua… f        20    31 p     comp…
#>  4 audi     a4       2.00  2008     4 auto(… f        21    30 p     comp…
#>  5 audi     a4       2.80  1999     6 auto(… f        16    26 p     comp…
#>  6 audi     a4       2.80  1999     6 manua… f        18    26 p     comp…
#>  7 audi     a4       3.10  2008     6 auto(… f        18    27 p     comp…
#>  8 audi     a4 qua…  1.80  1999     4 manua… 4        18    26 p     comp…
#>  9 audi     a4 qua…  1.80  1999     4 auto(… 4        16    25 p     comp…
#> 10 audi     a4 qua…  2.00  2008     4 manua… 4        20    28 p     comp…
#> # ... with 224 more rows
…
