…
In an earlier post, we learned a little bit about inference and some interesting tools that we can employ to make informed decisions based on our data instead of just guessing. Next you show your analysis to your friend who suggested to look for small engine cars to get better fuel economy. He is extremely impressed by the power of statistics and asks you another question.

Can we use the data we have to predict the fuel economy of any car from that population that we want?

This and related type of questions fall under the subject of prediction which is the subject of this blog. After you answer yes to your friend, he gets really excited and starts to ask a number of questions to which you really don’t know the answer to. So you start to explore the subject to get a good understanding yourself first. You immediately realize that the subject is vast, and once again to stay focused, you narrow your work to only numerical outcomes and linear models.

It’s tough to make predictions, especially about the future. - Yogi Berra

A Constant Output Machine

Imagine you are tasked to come up with a solution to predict the highway fuel economy of a car. Although we have a full data set (mpg from ggplot2 package), let’s pretend for a second that the only information I have is the highway fuel economy of a sample:

library(tidyverse)
mpg %>% select(hwy)  
#> # A tibble: 234 x 1
#>      hwy
#>    <int>
#>  1    29
#>  2    29
#>  3    31
#>  4    30
#>  5    26
#>  6    26
#>  7    27
#>  8    26
#>  9    25
#> 10    28
#> # ... with 224 more rows
…
