…
This is a type of question that statistical inference will help us answer. In this post, we will learn the fundamental concepts related to inference. As usual, we will keep the focus tight on the minimum set of tools needed to start applying the concepts to data at hand. We will add more tools as we start to play with different types of data.

Everything Varies

Variation is inherent to all phenomenon and processes. Otherwise our job is done. Our objective is to understand the variation in data so we can make an informed decision. So we want to ‘quantify’ the variation in our data. Just looking at the raw data is not going to cut it. Let’s try:

library(tidyverse)
hwy_4 <- mpg %>% 
    filter(cyl == 4) %>% 
    select(hwy)
hwy_6 <- mpg %>% 
    filter(cyl == 6) %>% 
    select(hwy)
hwy_4
#> # A tibble: 81 x 1
#>      hwy
#>    <int>
#>  1    29
#>  2    29
#>  3    31
#>  4    30
#>  5    26
#>  6    25
#>  7    28
#>  8    27
#>  9    27
#> 10    30
#> # ... with 71 more rows

hwy_6
#> # A tibble: 79 x 1
#>      hwy
#>    <int>
#>  1    26
#>  2    26
#>  3    27
#>  4    25
#>  5    25
#>  6    25
#>  7    25
#>  8    24
#>  9    25
#> 10    26
#> # ... with 69 more rows
…
